[
  {
    "_id": 1,
    "tailNumber": "N18249",
    "numSeats": 8,
    "fuelCapacity": 400
  },
  {
    "_id": 2,
    "tailNumber": "N94281",
    "numSeats": 8,
    "fuelCapacity": 200
  },
  {
    "_id": 3,
    "tailNumber": "N19842",
    "numSeats": 2,
    "fuelCapacity": 75
  },
  {
    "_id": 4,
    "tailNumber": "N12345",
    "numSeats": 5,
    "fuelCapacity": 60
  }
]